R markdown template
…
293 contracts remain in the 13 largest sections.

First gender balance for large sections are found as a table and visualized

large_section_worker$gender <- as.factor(large_section_worker$gender)

large_section_worker <- large_section_worker %>% 
  mutate(gender = recode(gender,"0" = "male", "1"="female"))

large_section_worker %>% 
group_by(oname, gender) %>% 
  tally()

## # A tibble: 22 x 3
## # Groups:   oname [?]
##                                                oname gender     n
##                                               <fctr> <fctr> <int>
##  1             Administrative and Minorities Section   male    14
##  2             Administrative and Minorities Section female     1
##  3                Communications and Transit Section   male    10
##  4                Communications and Transit Section female     1
##  5                               Disarmament Section   male    15
##  6                         Distribution of Documents   male    11
##  7                         Distribution of Documents female     2
##  8                    Economic and Financial Section   male    39
##  9                    Economic and Financial Section female     1
## 10 Financial Section & Economic Intelligence Service   male    16
## # ... with 12 more rows
…
Nationality distribution for the different sections are found:

large_section_worker %>% 
group_by(oname, nationality) %>% 
  tally()

## # A tibble: 166 x 3
## # Groups:   oname [?]
##                                    oname   nationality     n
##                                   <fctr>        <fctr> <int>
##  1 Administrative and Minorities Section    Australian     1
##  2 Administrative and Minorities Section          Dane     2
##  3 Administrative and Minorities Section         Dutch     1
##  4 Administrative and Minorities Section        Finish     1
##  5 Administrative and Minorities Section         Greek     1
##  6 Administrative and Minorities Section        Indian     1
##  7 Administrative and Minorities Section         Irish     1
##  8 Administrative and Minorities Section Luxembourgish     1
##  9 Administrative and Minorities Section     Portugese     1
## 10 Administrative and Minorities Section       Spanish     1
## # ... with 156 more rows
…
